$db['default']['hostname'] = "localhost";
$db['default']['username'] = "rockers_estatecr";
$db['default']['password'] = "gTPPG_OG+%gO";
$db['default']['database'] = "rockers_estatecrowd";



ALTER TABLE `campaign` ADD `salesforceSynId` VARCHAR(150) NULL AFTER `fund_inactive_note`;
ALTER TABLE `investment_process` ADD `salesforceInvId` VARCHAR(150) NULL AFTER `card_number`;
-----------------------------------------------------------------------------------------------------
new table -> salesforce_user,webservice_authentication
update with sql

------------------------------------------------------------------------------------------------------
--Salesforce invite code fields
ALTER TABLE `user` ADD `sf_referrer` VARCHAR(150) NULL AFTER `salesforceuserid`, ADD `sf_syndicate` VARCHAR(150) NULL AFTER `sf_referrer`;